%YAML 1.1
%TAG !u! tag:unity3d.com,2011:
--- !u!162 &1
EditorUserSettings:
  m_ObjectHideFlags: 0
  serializedVersion: 4
  m_ConfigSettings:
    RecentlyUsedScenePath-0:
      value: 22424703114646680e0b0227036c73150012146a7d66707e38271427fb
      flags: 0
    RecentlyUsedScenePath-1:
      value: 22424703114646680e0b0227036c761e0205176439262f2434
      flags: 0
    RecentlyUsedScenePath-2:
      value: 22424703114646680e0b0227036c73150012146a7d66747e38271427fb
      flags: 0
    RecentlyUsedScenePath-3:
      value: 22424703114646680e0b0227036c73150012146a7d66757e7c67083debf42d
      flags: 0
    RecentlyUsedScenePath-4:
      value: 22424703114646680e0b0227036c73150012146a7d66757e38271427fb
      flags: 0
    RecentlyUsedScenePath-5:
      value: 22424703114646680e0b0227036c73150012146a7d66727e38271427fb
      flags: 0
    RecentlyUsedScenePath-6:
      value: 22424703114646680e0b0227036c73150012146a7d66737e38271427fb
      flags: 0
    RecentlyUsedScenePath-7:
      value: 22424703114646680e0b0227036c73150012146a7e66777e38271427fb
      flags: 0
    RecentlyUsedScenePath-8:
      value: 22424703114646680e0b0227036c73150012146a7d66333e243d04
      flags: 0
    RecentlyUsedScenePath-9:
      value: 224247031146466b021a0d361f107b3b59251d39233d3433283a5200f2ec352bead435fbe23f31722c0ce6281d
      flags: 0
    vcSharedLogLevel:
      value: 0d5e400f0650
      flags: 0
  m_VCAutomaticAdd: 1
  m_VCDebugCom: 0
  m_VCDebugCmd: 0
  m_VCDebugOut: 0
  m_SemanticMergeMode: 2
  m_VCShowFailedCheckout: 1
  m_VCOverwriteFailedCheckoutAssets: 1
  m_VCProjectOverlayIcons: 1
  m_VCHierarchyOverlayIcons: 1
  m_VCOtherOverlayIcons: 1
  m_VCAllowAsyncUpdate: 1
